{
  "project_info": {
    "project_number": "922707989214",
    "firebase_url": "https://vapp-69f1d.firebaseio.com",
    "project_id": "vapp-69f1d",
    "storage_bucket": "vapp-69f1d.appspot.com"
  },
  "client": [
    {
      "client_info": {
        "mobilesdk_app_id": "1:922707989214:android:ff71eb7482bf6c34",
        "android_client_info": {
          "package_name": "con.example.carlos.foofofto"
        }
      },
      "oauth_client": [
        {
          "client_id": "922707989214-slj6inujt6jseo1flqo3optm7m8ud5f6.apps.googleusercontent.com",
          "client_type": 3
        }
      ],
      "api_key": [
        {
          "current_key": "AIzaSyCAuVcxl6MwD5DN01Ez3WD_7vF4S6gl2pQ"
        },
        {
          "current_key": "AIzaSyCiiZ7SX9pwPy48yPB7H6LU4EXsPhDt3U0"
        }
      ],
      "services": {
        "analytics_service": {
          "status": 1
        },
        "appinvite_service": {
          "status": 1,
          "other_platform_oauth_client": []
        },
        "ads_service": {
          "status": 2
        }
      }
    },
    {
      "client_info": {
        "mobilesdk_app_id": "1:922707989214:android:83ae5bf7a1472d53",
        "android_client_info": {
          "package_name": "com.example.carlos.appproyectos"
        }
      },
      "oauth_client": [
        {
          "client_id": "922707989214-slj6inujt6jseo1flqo3optm7m8ud5f6.apps.googleusercontent.com",
          "client_type": 3
        }
      ],
      "api_key": [
        {
          "current_key": "AIzaSyCAuVcxl6MwD5DN01Ez3WD_7vF4S6gl2pQ"
        },
        {
          "current_key": "AIzaSyCiiZ7SX9pwPy48yPB7H6LU4EXsPhDt3U0"
        }
      ],
      "services": {
        "analytics_service": {
          "status": 1
        },
        "appinvite_service": {
          "status": 1,
          "other_platform_oauth_client": []
        },
        "ads_service": {
          "status": 2
        }
      }
    }
  ],
  "configuration_version": "1"
}